%YAML 1.1
%TAG !u! tag:unity3d.com,2011:
--- !u!162 &1
EditorUserSettings:
  m_ObjectHideFlags: 0
  serializedVersion: 4
  m_ConfigSettings:
    RecentlyUsedScenePath-0:
      value: 2242470311464668190f1e3615317e0305120c39631c2e393f2d2d36f0f33b36c1e838fdf53533303c10a00f073b0f3ae1453907f7120d191e1bf30a5fea1e1a05dc
      flags: 0
    RecentlyUsedScenePath-1:
      value: 224247031146466f081c1e23192d6b150e030d38293b16312e223b21e7e57b1ce7ea39dae43f31397626ea310b701431fb1e10
      flags: 0
    RecentlyUsedScenePath-2:
      value: 22424703114646681917002b0a265b5037040c382326272539663936efef7b1ce7ea39dae43f31397717e1351027
      flags: 0
    RecentlyUsedScenePath-3:
      value: 22424703114646680e0b0227036c6c111b07142f1f2b233e2867083debf42d
      flags: 0
    RecentlyUsedScenePath-4:
      value: 2242470311464676020a092e036c74150f58132f3566333e243d04
      flags: 0
    RecentlyUsedScenePath-5:
      value: 224247031146467f18000b271f2d6b0217070b651f2b233e28163926ece73137ecd324e8f7297129370bfb25
      flags: 0
    RecentlyUsedScenePath-6:
      value: 22424703114646680e0b0227036c4c151518162e002d30352167083debf42d
      flags: 0
    RecentlyUsedScenePath-7:
      value: 22424703114646680e0b0227036c72111f19352f223d68252320092a
      flags: 0
    RecentlyUsedScenePath-8:
      value: 22424703114646680e0b0227036c591904040c06293e233c633c133af6f9
      flags: 0
    vcSharedLogLevel:
      value: 0d5e400f0650
      flags: 0
  m_VCAutomaticAdd: 1
  m_VCDebugCom: 0
  m_VCDebugCmd: 0
  m_VCDebugOut: 0
  m_SemanticMergeMode: 2
  m_VCShowFailedCheckout: 1
  m_VCOverwriteFailedCheckoutAssets: 1
  m_VCProjectOverlayIcons: 1
  m_VCHierarchyOverlayIcons: 1
  m_VCOtherOverlayIcons: 1
  m_VCAllowAsyncUpdate: 1
